<?xml version="1.0" encoding="UTF-8"?>
<svg xmlns="http://www.w3.org/2000/svg" xmlns:xlink="http://www.w3.org/1999/xlink" width="50pt" height="50pt" viewBox="0 0 50 50" version="1.1">
<g id="surface1277324">
<path style=" stroke:none;fill-rule:nonzero;fill:rgb(17.254902%,24.313725%,31.372549%);fill-opacity:1;" d="M 25 47.300781 L 24.359375 46.769531 C 23.144531 45.753906 21.5 44.652344 19.59375 43.378906 C 12.167969 38.40625 2 31.601562 2 20 C 2 12.832031 7.832031 7 15 7 C 18.894531 7 22.542969 8.734375 25 11.699219 C 27.457031 8.734375 31.105469 7 35 7 C 42.167969 7 48 12.832031 48 20 C 48 31.601562 37.832031 38.40625 30.40625 43.378906 C 28.5 44.652344 26.855469 45.753906 25.640625 46.769531 Z M 25 47.300781 "/>
</g>
</svg>
