<?xml version="1.0" standalone="no"?>
<!DOCTYPE svg PUBLIC "-//W3C//DTD SVG 20010904//EN"
 "http://www.w3.org/TR/2001/REC-SVG-20010904/DTD/svg10.dtd">
<svg version="1.0" xmlns="http://www.w3.org/2000/svg"
 width="700.000000pt" height="700.000000pt" viewBox="0 0 700.000000 700.000000"
 preserveAspectRatio="xMidYMid meet">
<metadata>
Created by potrace 1.11, written by Peter Selinger 2001-2013
</metadata>
<g transform="translate(0.000000,700.000000) scale(0.100000,-0.100000)"
fill="#000000" stroke="none">
<path d="M2348 6566 c-1 -2 -55 -6 -118 -9 -100 -5 -138 -10 -245 -31 -146
-28 -329 -105 -470 -198 -97 -63 -243 -208 -307 -303 -89 -132 -157 -311 -175
-458 -11 -87 -8 -314 5 -362 6 -22 14 -54 17 -72 8 -48 79 -243 88 -243 1 0 3
28 4 63 6 171 33 294 93 432 10 22 28 64 40 93 12 28 26 52 30 52 4 0 15 -24
25 -52 44 -140 152 -323 249 -426 34 -36 129 -113 161 -130 20 -10 21 -8 22
65 1 41 4 89 7 107 2 17 8 53 12 81 6 46 30 111 84 230 26 56 26 56 34 142 6
71 45 178 87 240 45 65 131 135 201 163 50 20 80 25 148 24 75 0 93 -4 155
-34 126 -60 217 -176 256 -326 30 -118 24 -326 -16 -501 -7 -29 -2 -40 34 -87
52 -68 135 -152 286 -291 65 -60 141 -131 169 -157 28 -26 54 -48 58 -48 9 0
103 117 145 180 107 160 192 385 210 555 51 492 -170 912 -597 1134 -166 86
-385 146 -573 157 -51 3 -97 7 -104 9 -6 2 -13 2 -15 1z"/>
<path d="M2037 5313 c-68 -146 -81 -203 -80 -368 0 -134 14 -221 40 -261 8
-12 45 -45 83 -73 38 -28 92 -77 120 -109 50 -55 134 -207 124 -224 -3 -4 -23
13 -46 40 -99 116 -143 149 -433 322 -104 62 -215 130 -246 151 -77 52 -161
136 -208 208 -38 60 -39 60 -46 33 -29 -109 2 -284 72 -413 2 -4 -36 1 -84 11
-96 20 -163 28 -291 35 l-84 5 111 -108 c146 -142 176 -205 130 -279 -27 -43
-100 -92 -259 -172 -144 -74 -295 -160 -327 -189 l-23 -19 83 0 c214 0 342
-69 387 -208 19 -58 15 -169 -9 -245 -26 -83 -27 -98 -3 -78 65 58 305 205
427 262 84 40 231 96 250 96 9 0 14 4 11 8 -5 8 -65 24 -146 38 -19 3 -42 7
-50 9 -8 2 -21 4 -28 4 -38 2 87 112 188 165 159 84 327 123 547 129 34 1 59
0 55 -4 -4 -3 -45 -16 -92 -29 -114 -31 -248 -83 -333 -127 l-70 -37 84 -22
c87 -22 165 -50 187 -67 10 -8 0 -17 -37 -38 -108 -59 -234 -173 -271 -246 -8
-15 -25 -45 -37 -65 l-22 -36 66 18 c102 30 200 39 273 26 181 -30 296 -145
307 -306 8 -99 -37 -209 -126 -314 -18 -21 -28 -21 147 0 43 6 52 4 52 -9 0
-37 -123 -187 -154 -187 -6 0 -4 -5 4 -10 36 -22 189 24 303 93 56 33 126 96
158 141 36 48 36 55 2 53 -16 -1 -47 2 -70 6 -73 12 -87 71 -57 239 l7 38 -33
-16 c-83 -42 -135 68 -95 202 8 27 14 51 13 54 0 3 9 25 21 48 12 24 21 45 19
47 -14 12 -149 42 -228 52 -25 2 -46 6 -48 7 -3 3 168 43 218 50 133 21 328
26 430 12 63 -8 109 -32 120 -61 9 -24 -8 -90 -43 -167 l-26 -56 95 -1 c185
-2 299 -43 359 -131 27 -41 30 -52 30 -127 0 -46 3 -83 6 -83 3 0 24 13 45 28
138 100 269 347 280 527 7 109 -4 123 -53 66 -37 -44 -116 -101 -139 -101 -12
0 -16 8 -28 62 -6 28 -62 88 -82 88 -26 0 -36 33 -38 122 -3 111 -33 209 -98
319 -74 123 -136 190 -448 479 -205 190 -291 287 -356 401 -42 74 -91 215 -97
276 -2 24 -6 45 -8 48 -8 7 -47 -123 -58 -190 -9 -58 -8 -176 3 -222 10 -44
39 -79 152 -180 114 -102 238 -218 297 -278 65 -65 177 -198 177 -209 0 -2 13
-26 30 -53 16 -26 36 -66 45 -88 l16 -40 -21 25 c-150 177 -344 367 -550 540
-309 258 -422 429 -446 670 -4 36 -7 66 -9 68 -1 1 -18 -33 -38 -75z m806
-1247 c76 -32 186 -152 208 -227 7 -21 10 -42 7 -44 -3 -3 -32 4 -64 16 -59
22 -106 52 -146 92 -22 24 -62 106 -72 150 -5 23 -3 27 14 27 11 0 35 -6 53
-14z"/>
<path d="M5272 4486 c-113 -46 -216 -110 -374 -233 -170 -133 -212 -156 -246
-134 -30 19 -16 77 40 160 16 24 27 45 25 47 -5 5 -96 -57 -157 -106 -126
-101 -281 -279 -346 -398 -21 -37 -40 -69 -44 -72 -9 -8 -58 -129 -74 -182
l-14 -48 106 100 c228 217 531 379 817 439 142 29 148 30 273 37 81 5 112 4
112 -5 0 -6 -3 -10 -7 -9 -18 5 -138 -14 -211 -33 -234 -60 -405 -138 -622
-282 -41 -27 -77 -53 -80 -56 -3 -3 -34 -31 -70 -61 -97 -82 -216 -205 -315
-325 -22 -26 -45 -53 -50 -59 -8 -9 -125 -156 -168 -211 -4 -5 -16 -21 -27
-34 -11 -13 -19 -25 -18 -26 2 -1 32 -17 68 -36 36 -18 121 -79 189 -134 68
-55 132 -106 142 -113 17 -13 24 -2 98 146 104 209 189 366 222 414 11 14 19
29 19 32 0 20 170 254 244 336 135 150 357 243 571 241 110 -2 151 -11 290
-63 94 -35 112 -34 215 17 84 41 284 110 345 119 22 4 47 8 55 11 49 13 133
19 267 19 l153 0 -52 46 c-78 69 -198 156 -248 181 -25 12 -52 27 -60 33 -41
32 -222 92 -332 111 -210 37 -357 25 -648 -53 -42 -11 -88 -18 -103 -15 -35 7
-45 43 -24 88 14 30 98 109 142 133 l20 11 -20 1 c-11 0 -57 -15 -103 -34z"/>
<path d="M819 3628 c-45 -27 -213 -200 -270 -277 -64 -88 -135 -214 -165 -295
-14 -39 -30 -80 -35 -91 -17 -42 -61 -235 -52 -235 1 0 23 20 49 45 25 25 58
52 73 60 25 12 31 12 50 -2 20 -13 22 -22 19 -67 -3 -28 -16 -91 -31 -140 -15
-48 -29 -98 -32 -110 -39 -181 -43 -208 -52 -316 -18 -207 -4 -402 41 -603 27
-120 123 -335 202 -452 51 -76 156 -205 199 -245 l27 -25 -16 38 c-34 82 -38
209 -9 239 16 16 24 17 47 8 15 -5 40 -22 55 -38 96 -94 261 -230 346 -285
150 -96 366 -187 515 -216 30 -6 66 -14 80 -16 122 -25 389 -24 535 0 391 66
694 223 970 500 82 84 177 195 225 265 13 19 27 37 30 40 8 7 152 238 170 273
17 35 37 15 -269 266 l-245 200 -59 -87 c-76 -112 -131 -178 -231 -277 -95
-94 -113 -109 -192 -162 -150 -102 -288 -152 -441 -160 -430 -23 -756 352
-747 856 6 312 136 644 338 868 63 69 62 72 -30 74 -80 2 -122 -16 -284 -119
-85 -55 -159 -97 -163 -95 -7 4 -4 57 8 123 1 8 6 40 10 70 4 30 8 62 10 70
14 84 15 110 5 110 -22 0 -153 -74 -231 -130 -107 -76 -183 -144 -326 -289
l-121 -125 -8 40 c-12 65 -6 285 11 373 2 10 6 36 9 57 4 22 14 77 22 124 32
168 25 196 -37 158z"/>
<path d="M2695 3426 c-17 -135 25 -207 202 -342 129 -98 166 -157 177 -279 10
-104 16 -135 39 -190 47 -114 96 -168 307 -340 455 -370 529 -434 575 -496 25
-34 48 -73 52 -88 3 -14 9 -30 13 -36 15 -19 22 -120 25 -319 3 -222 5 -244
42 -364 39 -128 119 -237 226 -311 44 -30 129 -71 148 -71 5 0 -7 21 -27 48
-47 60 -72 120 -88 202 -19 101 -6 175 47 265 34 58 86 120 88 105 1 -5 2 -13
3 -17 1 -5 5 -26 9 -48 54 -287 227 -518 472 -630 33 -15 67 -29 75 -30 8 -2
42 -10 75 -19 250 -63 529 -17 789 128 75 42 166 112 166 127 0 7 -7 8 -17 4
-10 -3 -66 -8 -124 -11 -160 -6 -285 35 -394 129 -31 27 -36 35 -20 34 31 -2
176 14 220 23 22 5 52 11 67 14 58 10 176 46 246 75 103 41 174 86 253 159
208 192 273 450 172 687 -117 277 -375 460 -693 493 -110 11 -120 5 -51 -29
145 -73 234 -235 203 -371 -30 -128 -172 -254 -342 -304 -109 -32 -320 -48
-378 -30 -22 7 -22 8 18 54 81 91 122 217 123 372 1 163 -77 314 -227 440 -25
22 -28 22 -22 6 4 -11 9 -55 11 -98 7 -111 -13 -175 -74 -236 -104 -104 -256
-115 -396 -30 -38 24 -410 318 -530 420 -116 98 -319 254 -355 273 -65 33 -93
38 -245 49 -166 13 -184 27 -221 177 -29 115 -41 144 -76 177 -25 23 -106 44
-218 57 -114 13 -196 41 -245 83 -30 25 -63 74 -70 105 -12 46 -23 40 -30 -17z"/>
</g>
</svg>
